{
  "project_info": {
    "project_number": "523983437685",
    "firebase_url": "https://fir-austral-be5e4.firebaseio.com",
    "project_id": "fir-austral-be5e4",
    "storage_bucket": "fir-austral-be5e4.appspot.com"
  },
  "client": [
    {
      "client_info": {
        "mobilesdk_app_id": "1:523983437685:android:9d4eceb14101602bf0dd3c",
        "android_client_info": {
          "package_name": "org.nativescript.demoaustral"
        }
      },
      "oauth_client": [
        {
          "client_id": "523983437685-ar1hbvc62n7ltjud3q9tvb9vusr0skgn.apps.googleusercontent.com",
          "client_type": 1,
          "android_info": {
            "package_name": "org.nativescript.demoaustral",
            "certificate_hash": "24c2c04a02f00d3498e2dd97bc1108432ba1d151"
          }
        },
        {
          "client_id": "523983437685-qupb66rl9285e6fu717scmovlhfm9jr3.apps.googleusercontent.com",
          "client_type": 3
        }
      ],
      "api_key": [
        {
          "current_key": "AIzaSyDoxiZrEbQxASdvQC8HTP6UwtEJYuNH5Dk"
        }
      ],
      "services": {
        "appinvite_service": {
          "other_platform_oauth_client": [
            {
              "client_id": "523983437685-qupb66rl9285e6fu717scmovlhfm9jr3.apps.googleusercontent.com",
              "client_type": 3
            }
          ]
        }
      }
    }
  ],
  "configuration_version": "1"
}